<svg xmlns="http://www.w3.org/2000/svg" width="233.719" height="78" viewBox="0 0 233.719 78">
  <defs>
    <style>
      .cls-1 {
        fill: none;
        stroke: #6290ee;
        stroke-width: 2px;
        fill-rule: evenodd;
      }
    </style>
  </defs>
  <path id="facebook.svg" class="cls-1" d="M696,1642H836c60.332,0,72-.07,72,58,0,15.9-13.163,17.54-36,18H686c-14.766-9.09-9.375-52.27-5.4-66.98,1.424-5.27,16.065-9.02,16.065-9.02" transform="translate(-675.281 -1641)"/>
</svg>
