<svg id="flag.svg" xmlns="http://www.w3.org/2000/svg" width="117.125" height="124.813" viewBox="0 0 117.125 124.813">
  <defs>
    <style>
      .cls-1 {
        fill: none;
        stroke: #6290ee;
        stroke-width: 2px;
        fill-rule: evenodd;
      }
    </style>
  </defs>
  <path class="cls-1" d="M150.5,785q2.834,58.476,5.668,116.963l0.035,0.012q-0.135-.509-0.271-1.016L157.5,902.5" transform="translate(-138.438 -784)"/>
  <path class="cls-1" d="M139.5,904l35.047,0.822L176,906.5" transform="translate(-138.438 -784)"/>
  <path class="cls-1" d="M150.5,799l53.336-2.469q0.826,22.977,1.654,45.957l-52.359,6.838" transform="translate(-138.438 -784)"/>
  <path class="cls-1" d="M204,844l-11.346,14.422c19.448,0,40.632-1.094,59.793-1.094q-1.323-23.079-2.646-46.164c-3.4,0-45.446-7.675-45.446-.984" transform="translate(-138.438 -784)"/>
  <path class="cls-1" d="M191,843q0.354,7.794.709,15.59-0.1-.545-0.209-1.09" transform="translate(-138.438 -784)"/>
</svg>
