<svg xmlns="http://www.w3.org/2000/svg" width="365.938" height="30" viewBox="0 0 365.938 30">
  <defs>
    <style>
      .cls-1 {
        fill: #f1627f;
        fill-rule: evenodd;
      }
    </style>
  </defs>
  <path id="logo-h.svg" class="cls-1" d="M80.986,89A15.005,15.005,0,0,0,80.644,119c8.4,0,14.728-6.532,14.728-15.217C95.372,95.354,89.187,89,80.986,89Zm-0.2,23.447c-4.477,0-7.851-3.633-7.851-8.442s3.359-8.446,7.815-8.446c4.38,0,7.681,3.6,7.681,8.41C88.426,108.878,85.211,112.444,80.781,112.444Zm74.511-9.6c-0.626-.575-1.19-1.067-1.7-1.5a19.181,19.181,0,0,1-1.621-1.5A2.92,2.92,0,0,1,151,97.731c-0.024-1.626,1.541-2.19,2.891-2.25a21.879,21.879,0,0,1,3.545.263l0.08-6.175a30.9,30.9,0,0,0-4.168-.428c-6.557-.152-9.427,4.482-9.359,8.771a10.07,10.07,0,0,0,3.307,7.13c0.877,0.843,1.817,1.641,2.954,2.6,1.174,0.984,1.68,1.8,1.693,2.695,0.026,1.685-1.448,2.3-2.719,2.319-0.937.013-5.066-.833-5.066-0.833l-0.083,6.148,0.517,0.227a14.083,14.083,0,0,0,5.139.8c5.521-.09,9.474-3.659,9.4-8.523C159.078,107.063,157.558,104.961,155.292,102.846Zm112.51-7.29h7.288v23.025h5.934l0.837-.069V95.556h7.287v-6.2H267.8v6.2Zm80.816,10.5a9.561,9.561,0,0,0,1.265-.865,8.857,8.857,0,0,0,3.214-7.043c0-6.011-4.337-7.795-5.652-8.192a14.931,14.931,0,0,0-5.049-.666c-0.8,0-2.655-.006-3.453.027s-2.852,0-2.852,0v29.268h6.538v-10.3c2.305,3.5,4.247,6.511,5.919,9.115l0.76,1.187h7.551S349.3,107.051,348.618,106.052Zm-3.671-4.518a4.462,4.462,0,0,1-2.318.573v-7.15c0.149-.005.312-0.005,0.492-0.005,2.266,0,3.566,1.224,3.566,3.408A3.427,3.427,0,0,1,344.947,101.534ZM417.6,89A15.005,15.005,0,0,0,417.254,119c8.395,0,14.726-6.532,14.726-15.217C431.98,95.354,425.8,89,417.6,89Zm-0.207,23.447c-4.477,0-7.851-3.633-7.851-8.442s3.36-8.446,7.817-8.446c4.377,0,7.677,3.6,7.677,8.41C425.034,108.878,421.821,112.444,417.391,112.444Zm-199.269-9.6c-0.623-.575-1.19-1.067-1.694-1.5a19.243,19.243,0,0,1-1.623-1.5,2.926,2.926,0,0,1-.976-2.113c-0.029-1.626,1.542-2.19,2.89-2.25a21.921,21.921,0,0,1,3.546.263l0.08-6.175a30.966,30.966,0,0,0-4.168-.428c-6.558-.152-9.425,4.482-9.361,8.771a10.076,10.076,0,0,0,3.311,7.13c0.875,0.843,1.814,1.641,2.952,2.6,1.175,0.984,1.68,1.8,1.691,2.695,0.026,1.685-1.447,2.3-2.718,2.319-0.934.013-5.067-.833-5.067-0.833l-0.078,6.148,0.514,0.227a14.069,14.069,0,0,0,5.14.8c5.521-.09,9.475-3.659,9.395-8.523C221.907,107.063,220.389,104.961,218.122,102.846Z" transform="translate(-66.031 -89)"/>
</svg>
