<svg xmlns="http://www.w3.org/2000/svg" width="692.03" height="104.06" viewBox="0 0 692.03 104.06">
  <defs>
    <style>
      .cls-1 {
        fill: none;
        stroke: #f1627f;
        stroke-width: 2px;
        fill-rule: evenodd;
      }
    </style>
  </defs>
  <path id="show-more-h.svg" class="cls-1" d="M1908,1475c21.07,0,34-5.21,34,78,0,18.37-13.89,24-56,24-10.9-.22-486.67,0-530,0-84.67,0-104-9.9-104-34,0-16.94-2.73-68,50-68h606Z" transform="translate(-1250.97 -1473.94)"/>
</svg>
